21.csv

X,CH1,Start,Increment,
Sequence,Volt,5.2499997313e-002,1.0000000657e-005,
0,1.600e-002,
1,4.000e-002,
2,1.600e-002,
3,4.000e-002,
4,4.000e-002,
5,8.000e-003,
6,4.000e-002,
7,0.000e000,
8,3.200e-002,
9,-8.000e-003,
10,-8.000e-003,
11,2.400e-002,
12,1.600e-002,
13,-2.400e-002,
14,0.000e000,
15,-2.400e-002,
16,0.000e000,
17,-3.200e-002,
18,-8.000e-003,
19,-3.200e-002,
20,-8.000e-003,
21,-3.200e-002,
22,-3.200e-002,
23,0.000e000,
24,-2.400e-002,
25,0.000e000,
26,-2.400e-002,
27,8.000e-003,
28,-2.400e-002,
29,8.000e-003,
30,8.000e-003,
31,-2.400e-002,
32,-1.600e-002,
33,1.600e-002,
34,1.600e-002,
35,-1.600e-002,
36,-8.000e-003,
37,1.600e-002,
38,1.600e-002,
39,-1.600e-002,
40,1.600e-002,
41,-1.600e-002,
42,8.000e-003,
43,-1.600e-002,
44,8.000e-003,
45,-2.400e-002,
46,0.000e000,
47,-2.400e-002,
48,-2.400e-002,
49,0.000e000,
50,0.000e000,
51,-3.200e-002,
52,0.000e000,
53,-3.200e-002,
54,0.000e000,
55,-3.200e-002,
56,-3.200e-002,
57,0.000e000,
58,0.000e000,
59,-3.200e-002,
60,0.000e000,
61,-3.200e-002,
62,-2.400e-002,
63,0.000e000,
64,-2.400e-002,
65,0.000e000,
66,0.000e000,
67,-2.400e-002,
68,-2.400e-002,
69,8.000e-003,
70,-1.600e-002,
71,8.000e-003,
72,-1.600e-002,
73,8.000e-003,
74,-1.600e-002,
75,8.000e-003,
76,-1.600e-002,
77,8.000e-003,
78,-1.600e-002,
79,8.000e-003,
80,8.000e-003,
81,-2.400e-002,
82,-2.400e-002,
83,8.000e-003,
84,8.000e-003,
85,-2.400e-002,
86,0.000e000,
87,-2.400e-002,
88,0.000e000,
89,-2.400e-002,
90,0.000e000,
91,-2.400e-002,
92,0.000e000,
93,-2.400e-002,
94,-2.400e-002,
95,8.000e-003,
96,-2.400e-002,
97,8.000e-003,
98,-2.400e-002,
99,1.600e-002,
100,-1.600e-002,
101,1.600e-002,
102,1.600e-002,
103,-1.600e-002,
104,1.600e-002,
105,-1.600e-002,
106,8.000e-003,
107,-1.600e-002,
108,-1.600e-002,
109,8.000e-003,
110,-1.600e-002,
111,8.000e-003,
112,-1.600e-002,
113,8.000e-003,
114,-1.600e-002,
115,8.000e-003,
116,-1.600e-002,
117,8.000e-003,
118,-1.600e-002,
119,8.000e-003,
120,-1.600e-002,
121,8.000e-003,
122,8.000e-003,
123,-2.400e-002,
124,-1.600e-002,
125,8.000e-003,
126,8.000e-003,
127,-2.400e-002,
128,-1.600e-002,
129,8.000e-003,
130,-1.600e-002,
131,8.000e-003,
132,-1.600e-002,
133,8.000e-003,
134,-1.600e-002,
135,1.600e-002,
136,-1.600e-002,
137,1.600e-002,
138,-1.600e-002,
139,1.600e-002,
140,1.600e-002,
141,-1.600e-002,
142,-8.000e-003,
143,1.600e-002,
144,-8.000e-003,
145,1.600e-002,
146,1.600e-002,
147,-8.000e-003,
148,1.600e-002,
149,-1.600e-002,
150,1.600e-002,
151,-8.000e-003,
152,1.600e-002,
153,-1.600e-002,
154,-1.600e-002,
155,1.600e-002,
156,-1.600e-002,
157,8.000e-003,
158,-2.400e-002,
159,8.000e-003,
160,-2.400e-002,
161,0.000e000,
162,-2.400e-002,
163,8.000e-003,
164,8.000e-003,
165,-2.400e-002,
166,-1.600e-002,
167,1.600e-002,
168,1.600e-002,
169,-1.600e-002,
170,-8.000e-003,
171,1.600e-002,
172,-8.000e-003,
173,2.400e-002,
174,-8.000e-003,
175,2.400e-002,
176,-8.000e-003,
177,2.400e-002,
178,-8.000e-003,
179,2.400e-002,
180,1.600e-002,
181,-8.000e-003,
182,1.600e-002,
183,-1.600e-002,
184,8.000e-003,
185,-1.600e-002,
186,8.000e-003,
187,-2.400e-002,
188,0.000e000,
189,-2.400e-002,
190,-2.400e-002,
191,0.000e000,
192,0.000e000,
193,-2.400e-002,
194,-2.400e-002,
195,8.000e-003,
196,-1.600e-002,
197,8.000e-003,
198,8.000e-003,
199,-1.600e-002,
200,-1.600e-002,
201,1.600e-002,
202,-8.000e-003,
203,1.600e-002,
204,-8.000e-003,
205,2.400e-002,
206,2.400e-002,
207,-8.000e-003,
208,0.000e000,
209,3.200e-002,
210,0.000e000,
211,3.200e-002,
212,8.000e-003,
213,3.200e-002,
214,8.000e-003,
215,3.200e-002,
216,3.200e-002,
217,0.000e000,
218,3.200e-002,
219,0.000e000,
220,0.000e000,
221,3.200e-002,
222,2.400e-002,
223,-8.000e-003,
224,1.600e-002,
225,-1.600e-002,
226,8.000e-003,
227,-2.400e-002,
228,0.000e000,
229,-3.200e-002,
230,-8.000e-003,
231,-4.000e-002,
232,-1.600e-002,
233,-4.800e-002,
234,-2.400e-002,
235,-4.800e-002,
236,-4.800e-002,
237,-2.400e-002,
238,-4.800e-002,
239,-2.400e-002,
240,-4.800e-002,
241,-1.600e-002,
242,-4.000e-002,
243,-8.000e-003,
244,-4.000e-002,
245,-8.000e-003,
246,-2.400e-002,
247,0.000e000,
248,-2.400e-002,
249,8.000e-003,
250,-1.600e-002,
251,1.600e-002,
252,-8.000e-003,
253,1.600e-002,
254,-8.000e-003,
255,2.400e-002,
256,-8.000e-003,
257,2.400e-002,
258,-8.000e-003,
259,2.400e-002,
260,1.600e-002,
261,-8.000e-003,
262,1.600e-002,
263,-1.600e-002,
264,-1.600e-002,
265,1.600e-002,
266,-1.600e-002,
267,8.000e-003,
268,-1.600e-002,
269,8.000e-003,
270,8.000e-003,
271,-2.400e-002,
272,8.000e-003,
273,-2.400e-002,
274,8.000e-003,
275,-1.600e-002,
276,-1.600e-002,
277,1.600e-002,
278,-1.600e-002,
279,1.600e-002,
280,-1.600e-002,
281,1.600e-002,
282,-1.600e-002,
283,1.600e-002,
284,-1.600e-002,
285,1.600e-002,
286,1.600e-002,
287,-1.600e-002,
288,1.600e-002,
289,-1.600e-002,
290,-8.000e-003,
291,2.400e-002,
292,-8.000e-003,
293,2.400e-002,
294,0.000e000,
295,3.200e-002,
296,8.000e-003,
297,4.000e-002,
298,1.600e-002,
299,4.000e-002,
300,1.600e-002,
301,4.800e-002,
302,1.600e-002,
303,4.800e-002,
304,1.600e-002,
305,4.800e-002,
306,1.600e-002,
307,4.000e-002,
308,4.000e-002,
309,8.000e-003,
310,3.200e-002,
311,0.000e000,
312,2.400e-002,
313,-8.000e-003,
314,1.600e-002,
315,-1.600e-002,
316,8.000e-003,
317,-2.400e-002,
318,0.000e000,
319,-3.200e-002,
320,-8.000e-003,
321,-3.200e-002,
322,-3.200e-002,
323,0.000e000,
324,-3.200e-002,
325,0.000e000,
326,-2.400e-002,
327,0.000e000,
328,-2.400e-002,
329,8.000e-003,
330,-2.400e-002,
331,8.000e-003,
332,-1.600e-002,
333,8.000e-003,
334,-1.600e-002,
335,1.600e-002,
336,1.600e-002,
337,-1.600e-002,
338,-8.000e-003,
339,1.600e-002,
340,-8.000e-003,
341,1.600e-002,
342,1.600e-002,
343,-1.600e-002,
344,-1.600e-002,
345,1.600e-002,
346,8.000e-003,
347,-2.400e-002,
348,8.000e-003,
349,-2.400e-002,
350,-2.400e-002,
351,0.000e000,
352,0.000e000,
353,-3.200e-002,
354,-3.200e-002,
355,0.000e000,
356,0.000e000,
357,-3.200e-002,
358,-3.200e-002,
359,0.000e000,
360,-3.200e-002,
361,0.000e000,
362,0.000e000,
363,-3.200e-002,
364,-2.400e-002,
365,0.000e000,
366,-2.400e-002,
367,0.000e000,
368,0.000e000,
369,-2.400e-002,
370,-2.400e-002,
371,8.000e-003,
372,-1.600e-002,
373,8.000e-003,
374,-1.600e-002,
375,8.000e-003,
376,8.000e-003,
377,-1.600e-002,
378,8.000e-003,
379,-1.600e-002,
380,-1.600e-002,
381,8.000e-003,
382,8.000e-003,
383,-2.400e-002,
384,-1.600e-002,
385,8.000e-003,
386,8.000e-003,
387,-2.400e-002,
388,0.000e000,
389,-2.400e-002,
390,-2.400e-002,
391,0.000e000,
392,-2.400e-002,
393,0.000e000,
394,-2.400e-002,
395,0.000e000,
396,-2.400e-002,
397,0.000e000,
398,-2.400e-002,
399,8.000e-003,
400,8.000e-003,
401,-2.400e-002,
402,-1.600e-002,
403,1.600e-002,
404,-1.600e-002,
405,1.600e-002,
406,-1.600e-002,
407,1.600e-002,
408,-1.600e-002,
409,1.600e-002,
410,8.000e-003,
411,-1.600e-002,
412,-1.600e-002,
413,8.000e-003,
414,-1.600e-002,
415,8.000e-003,
416,8.000e-003,
417,-2.400e-002,
418,-1.600e-002,
419,8.000e-003,
420,8.000e-003,
421,-2.400e-002,
422,-1.600e-002,
423,8.000e-003,
424,8.000e-003,
425,-2.400e-002,
426,8.000e-003,
427,-2.400e-002,
428,-1.600e-002,
429,8.000e-003,
430,8.000e-003,
431,-2.400e-002,
432,8.000e-003,
433,-2.400e-002,
434,-1.600e-002,
435,8.000e-003,
436,-1.600e-002,
437,8.000e-003,
438,-1.600e-002,
439,1.600e-002,
440,-1.600e-002,
441,1.600e-002,
442,1.600e-002,
443,-1.600e-002,
444,-8.000e-003,
445,1.600e-002,
446,-8.000e-003,
447,1.600e-002,
448,-8.000e-003,
449,1.600e-002,
450,-8.000e-003,
451,1.600e-002,
452,-8.000e-003,
453,1.600e-002,
454,1.600e-002,
455,-1.600e-002,
456,-1.600e-002,
457,1.600e-002,
458,-1.600e-002,
459,8.000e-003,
460,-2.400e-002,
461,8.000e-003,
462,-2.400e-002,
463,8.000e-003,
464,-2.400e-002,
465,0.000e000,
466,-2.400e-002,
467,8.000e-003,
468,-1.600e-002,
469,8.000e-003,
470,-1.600e-002,
471,1.600e-002,
472,-8.000e-003,
473,1.600e-002,
474,-8.000e-003,
475,2.400e-002,
476,-8.000e-003,
477,2.400e-002,
478,1.600e-002,
479,-8.000e-003,
480,-8.000e-003,
481,2.400e-002,
482,1.600e-002,
483,-8.000e-003,
484,1.600e-002,
485,-1.600e-002,
486,1.600e-002,
487,-1.600e-002,
488,8.000e-003,
489,-2.400e-002,
490,0.000e000,
491,-2.400e-002,
492,-2.400e-002,
493,8.000e-003,
494,0.000e000,
495,-2.400e-002,
496,-2.400e-002,
497,8.000e-003,
498,8.000e-003,
499,-2.400e-002,
500,-1.600e-002,
501,8.000e-003,
502,-1.600e-002,
503,1.600e-002,
504,1.600e-002,
505,-1.600e-002,
506,-8.000e-003,
507,2.400e-002,
508,2.400e-002,
509,-8.000e-003,
510,0.000e000,
511,2.400e-002,
512,0.000e000,
513,3.200e-002,
514,3.200e-002,
515,0.000e000,
516,8.000e-003,
517,3.200e-002,
518,3.200e-002,
519,0.000e000,
520,3.200e-002,
521,0.000e000,
522,0.000e000,
523,3.200e-002,
524,2.400e-002,
525,-8.000e-003,
526,1.600e-002,
527,-1.600e-002,
528,8.000e-003,
529,-2.400e-002,
530,0.000e000,
531,-3.200e-002,
532,-8.000e-003,
533,-4.000e-002,
534,-1.600e-002,
535,-4.800e-002,
536,-1.600e-002,
537,-4.800e-002,
538,-4.800e-002,
539,-2.400e-002,
540,-4.800e-002,
541,-2.400e-002,
542,-4.800e-002,
543,-1.600e-002,
544,-4.000e-002,
545,-1.600e-002,
546,-4.000e-002,
547,-8.000e-003,
548,-3.200e-002,
549,0.000e000,
550,-2.400e-002,
551,8.000e-003,
552,-1.600e-002,
553,1.600e-002,
554,-8.000e-003,
555,1.600e-002,
556,-8.000e-003,
557,2.400e-002,
558,-8.000e-003,
559,2.400e-002,
560,1.600e-002,
561,-8.000e-003,
562,1.600e-002,
563,-8.000e-003,
564,1.600e-002,
565,-1.600e-002,
566,-1.600e-002,
567,1.600e-002,
568,-1.600e-002,
569,8.000e-003,
570,-1.600e-002,
571,8.000e-003,
572,-1.600e-002,
573,8.000e-003,
574,-1.600e-002,
575,8.000e-003,
576,8.000e-003,
577,-2.400e-002,
578,-1.600e-002,
579,8.000e-003,
580,-1.600e-002,
581,1.600e-002,
582,-1.600e-002,
583,1.600e-002,
584,-1.600e-002,
585,1.600e-002,
586,1.600e-002,
587,-1.600e-002,
588,-1.600e-002,
589,1.600e-002,
590,-1.600e-002,
591,1.600e-002,
592,-1.600e-002,
593,1.600e-002,
594,-8.000e-003,
595,2.400e-002,
596,2.400e-002,
597,-8.000e-003,
598,0.000e000,
599,3.200e-002,
600,8.000e-003,
601,4.000e-002,
602,1.600e-002,
603,4.000e-002,
604,4.000e-002,
605,1.600e-002,
606,1.600e-002,
607,4.000e-002,
608,1.600e-002,
609,4.000e-002,
610,4.000e-002,
611,0.000e000,
612,3.200e-002,
613,0.000e000,
614,2.400e-002,
615,-8.000e-003,
616,1.600e-002,
617,-1.600e-002,
618,8.000e-003,
619,-2.400e-002,
620,0.000e000,
621,-3.200e-002,
622,-3.200e-002,
623,0.000e000,
624,-3.200e-002,
625,0.000e000,
626,-3.200e-002,
627,0.000e000,
628,-2.400e-002,
629,0.000e000,
630,-2.400e-002,
631,0.000e000,
632,-2.400e-002,
633,8.000e-003,
634,8.000e-003,
635,-2.400e-002,
636,8.000e-003,
637,-1.600e-002,
638,-1.600e-002,
639,1.600e-002,
640,1.600e-002,
641,-1.600e-002,
642,-8.000e-003,
643,1.600e-002,
644,1.600e-002,
645,-1.600e-002,
646,1.600e-002,
647,-1.600e-002,
648,8.000e-003,
649,-1.600e-002,
650,8.000e-003,
651,-2.400e-002,
652,0.000e000,
653,-2.400e-002,
654,0.000e000,
655,-3.200e-002,
656,0.000e000,
657,-3.200e-002,
658,-3.200e-002,
659,0.000e000,
660,-3.200e-002,
661,0.000e000,
662,-3.200e-002,
663,0.000e000,
664,-3.200e-002,
665,0.000e000,
666,0.000e000,
667,-3.200e-002,
668,0.000e000,
669,-3.200e-002,
670,-2.400e-002,
671,0.000e000,
672,-2.400e-002,
673,8.000e-003,
674,-2.400e-002,
675,8.000e-003,
676,-1.600e-002,
677,8.000e-003,
678,-1.600e-002,
679,8.000e-003,
680,-1.600e-002,
681,8.000e-003,
682,-1.600e-002,
683,8.000e-003,
684,-1.600e-002,
685,8.000e-003,
686,-1.600e-002,
687,8.000e-003,
688,8.000e-003,
689,-2.400e-002,
690,-2.400e-002,
691,8.000e-003,
692,0.000e000,
693,-2.400e-002,
694,0.000e000,
695,-2.400e-002,
696,-2.400e-002,
697,0.000e000,
698,-2.400e-002,
699,0.000e000,
700,-2.400e-002,
701,8.000e-003,
702,-2.400e-002,
703,8.000e-003,
704,-1.600e-002,
705,8.000e-003,
706,-1.600e-002,
707,1.600e-002,
708,1.600e-002,
709,-1.600e-002,
710,-1.600e-002,
711,1.600e-002,
712,-1.600e-002,
713,8.000e-003,
714,-1.600e-002,
715,1.600e-002,
716,8.000e-003,
717,-1.600e-002,
718,-1.600e-002,
719,8.000e-003,
720,-1.600e-002,
721,8.000e-003,
722,-1.600e-002,
723,8.000e-003,
724,-1.600e-002,
725,8.000e-003,
726,-1.600e-002,
727,8.000e-003,
728,-1.600e-002,
729,8.000e-003,
730,8.000e-003,
731,-2.400e-002,
732,-1.600e-002,
733,8.000e-003,
734,-1.600e-002,
735,8.000e-003,
736,-1.600e-002,
737,8.000e-003,
738,-1.600e-002,
739,8.000e-003,
740,8.000e-003,
741,-1.600e-002,
742,-1.600e-002,
743,1.600e-002,
744,-1.600e-002,
745,1.600e-002,
746,-8.000e-003,
747,1.600e-002,
748,-8.000e-003,
749,1.600e-002,
750,-8.000e-003,
751,1.600e-002,
752,-8.000e-003,
753,1.600e-002,
754,-8.000e-003,
755,1.600e-002,
756,-8.000e-003,
757,1.600e-002,
758,1.600e-002,
759,-1.600e-002,
760,-1.600e-002,
761,8.000e-003,
762,8.000e-003,
763,-2.400e-002,
764,-2.400e-002,
765,8.000e-003,
766,-2.400e-002,
767,8.000e-003,
768,8.000e-003,
769,-1.600e-002,
770,-1.600e-002,
771,8.000e-003,
772,-1.600e-002,
773,1.600e-002,
774,1.600e-002,
775,-1.600e-002,
776,-8.000e-003,
777,1.600e-002,
778,-8.000e-003,
779,1.600e-002,
780,-8.000e-003,
781,2.400e-002,
782,-8.000e-003,
783,1.600e-002,
784,-8.000e-003,
785,1.600e-002,
786,-8.000e-003,
787,1.600e-002,
788,-1.600e-002,
789,1.600e-002,
790,8.000e-003,
791,-1.600e-002,
792,8.000e-003,
793,-2.400e-002,
794,-2.400e-002,
795,8.000e-003,
796,-2.400e-002,
797,8.000e-003,
798,-2.400e-002,
799,8.000e-003,
800,8.000e-003,
801,-2.400e-002,
802,-1.600e-002,
803,8.000e-003,
804,-1.600e-002,
805,1.600e-002,
806,-1.600e-002,
807,1.600e-002,
808,-8.000e-003,
809,2.400e-002,
810,-8.000e-003,
811,2.400e-002,
812,0.000e000,
813,2.400e-002,
814,0.000e000,
815,3.200e-002,
816,3.200e-002,
817,0.000e000,
818,3.200e-002,
819,0.000e000,
820,8.000e-003,
821,3.200e-002,
822,8.000e-003,
823,3.200e-002,
824,3.200e-002,
825,0.000e000,
826,0.000e000,
827,3.200e-002,
828,2.400e-002,
829,-8.000e-003,
830,1.600e-002,
831,-1.600e-002,
832,8.000e-003,
833,-3.200e-002,
834,0.000e000,
835,-3.200e-002,
836,-4.000e-002,
837,-8.000e-003,
838,-1.600e-002,
839,-4.800e-002,
840,-2.400e-002,
841,-5.599e-002,
842,-4.800e-002,
843,-2.400e-002,
844,-4.800e-002,
845,-2.400e-002,
846,-4.800e-002,
847,-1.600e-002,
848,-4.000e-002,
849,-8.000e-003,
850,-3.200e-002,
851,0.000e000,
852,-3.200e-002,
853,8.000e-003,
854,-1.600e-002,
855,1.600e-002,
856,1.600e-002,
857,-1.600e-002,
858,-8.000e-003,
859,2.400e-002,
860,-8.000e-003,
861,2.400e-002,
862,-8.000e-003,
863,2.400e-002,
864,1.600e-002,
865,-8.000e-003,
866,1.600e-002,
867,-1.600e-002,
868,1.600e-002,
869,-1.600e-002,
870,8.000e-003,
871,-1.600e-002,
872,-1.600e-002,
873,8.000e-003,
874,8.000e-003,
875,-2.400e-002,
876,8.000e-003,
877,-2.400e-002,
878,8.000e-003,
879,-2.400e-002,
880,-1.600e-002,
881,8.000e-003,
882,-1.600e-002,
883,1.600e-002,
884,-1.600e-002,
885,1.600e-002,
886,-1.600e-002,
887,1.600e-002,
888,-1.600e-002,
889,1.600e-002,
890,-1.600e-002,
891,1.600e-002,
892,1.600e-002,
893,-1.600e-002,
894,-1.600e-002,
895,1.600e-002,
896,-8.000e-003,
897,2.400e-002,
898,-8.000e-003,
899,2.400e-002,
900,0.000e000,
901,3.200e-002,
902,8.000e-003,
903,4.000e-002,
904,4.000e-002,
905,8.000e-003,
906,1.600e-002,
907,4.000e-002,
908,4.000e-002,
909,1.600e-002,
910,4.000e-002,
911,8.000e-003,
912,4.000e-002,
913,8.000e-003,
914,3.200e-002,
915,0.000e000,
916,2.400e-002,
917,-8.000e-003,
918,1.600e-002,
919,-1.600e-002,
920,8.000e-003,
921,-2.400e-002,
922,0.000e000,
923,-2.400e-002,
924,0.000e000,
925,-3.200e-002,
926,-3.200e-002,
927,0.000e000,
928,-3.200e-002,
929,0.000e000,
930,-2.400e-002,
931,0.000e000,
932,-2.400e-002,
933,0.000e000,
934,0.000e000,
935,-2.400e-002,
936,-2.400e-002,
937,8.000e-003,
938,-1.600e-002,
939,8.000e-003,
940,1.600e-002,
941,-1.600e-002,
942,1.600e-002,
943,-1.600e-002,
944,-1.600e-002,
945,1.600e-002,
946,-8.000e-003,
947,1.600e-002,
948,1.600e-002,
949,-1.600e-002,
950,-1.600e-002,
951,1.600e-002,
952,8.000e-003,
953,-2.400e-002,
954,0.000e000,
955,-2.400e-002,
956,0.000e000,
957,-3.200e-002,
958,-2.400e-002,
959,0.000e000,
960,0.000e000,
961,-3.200e-002,
962,-3.200e-002,
963,0.000e000,
964,-3.200e-002,
965,0.000e000,
966,0.000e000,
967,-3.200e-002,
968,0.000e000,
969,-3.200e-002,
970,0.000e000,
971,-3.200e-002,
972,-2.400e-002,
973,0.000e000,
974,-2.400e-002,
975,0.000e000,
976,-2.400e-002,
977,8.000e-003,
978,-1.600e-002,
979,8.000e-003,
980,-1.600e-002,
981,8.000e-003,
982,-1.600e-002,
983,8.000e-003,
984,-1.600e-002,
985,8.000e-003,
986,-1.600e-002,
987,8.000e-003,
988,-1.600e-002,
989,8.000e-003,
990,8.000e-003,
991,-2.400e-002,
992,-2.400e-002,
993,8.000e-003,
994,0.000e000,
995,-2.400e-002,
996,-2.400e-002,
997,0.000e000,
998,-2.400e-002,
999,0.000e000,
1000,0.000e000,
1001,-3.200e-002,
1002,0.000e000,
1003,-2.400e-002,
1004,-2.400e-002,
1005,8.000e-003,
1006,-1.600e-002,
1007,8.000e-003,
1008,-1.600e-002,
1009,1.600e-002,
1010,1.600e-002,
1011,-1.600e-002,
1012,-1.600e-002,
1013,1.600e-002,
1014,8.000e-003,
1015,-1.600e-002,
1016,-1.600e-002,
1017,8.000e-003,
1018,-1.600e-002,
1019,8.000e-003,
1020,-1.600e-002,
1021,8.000e-003,
1022,-1.600e-002,
1023,8.000e-003,
1024,8.000e-003,
1025,-2.400e-002,
1026,-1.600e-002,
1027,8.000e-003,
1028,-1.600e-002,
1029,8.000e-003,
1030,-2.400e-002,
1031,8.000e-003,
1032,-1.600e-002,
1033,8.000e-003,
1034,8.000e-003,
1035,-2.400e-002,
1036,-1.600e-002,
1037,8.000e-003,
1038,-1.600e-002,
1039,8.000e-003,
1040,-1.600e-002,
1041,8.000e-003,
1042,-1.600e-002,
1043,8.000e-003,
1044,-1.600e-002,
1045,1.600e-002,
1046,-1.600e-002,
1047,1.600e-002,
1048,1.600e-002,
1049,-1.600e-002,
1050,-8.000e-003,
1051,1.600e-002,
1052,-8.000e-003,
1053,1.600e-002,
1054,-8.000e-003,
1055,1.600e-002,
1056,-8.000e-003,
1057,1.600e-002,
1058,1.600e-002,
1059,-8.000e-003,
1060,1.600e-002,
1061,-1.600e-002,
1062,8.000e-003,
1063,-1.600e-002,
1064,-1.600e-002,
1065,8.000e-003,
1066,-2.400e-002,
1067,8.000e-003,
1068,-2.400e-002,
1069,8.000e-003,
1070,-2.400e-002,
1071,8.000e-003,
1072,8.000e-003,
1073,-2.400e-002,
1074,-1.600e-002,
1075,1.600e-002,
1076,1.600e-002,
1077,-1.600e-002,
1078,-8.000e-003,
1079,2.400e-002,
1080,-8.000e-003,
1081,2.400e-002,
1082,-8.000e-003,
1083,2.400e-002,
1084,-8.000e-003,
1085,2.400e-002,
1086,-8.000e-003,
1087,2.400e-002,
1088,-8.000e-003,
1089,1.600e-002,
1090,1.600e-002,
1091,-1.600e-002,
1092,-1.600e-002,
1093,8.000e-003,
1094,8.000e-003,
1095,-2.400e-002,
1096,-2.400e-002,
1097,8.000e-003,
1098,-2.400e-002,
1099,8.000e-003,
1100,-2.400e-002,
1101,8.000e-003,
1102,-1.600e-002,
1103,8.000e-003,
1104,-1.600e-002,
1105,8.000e-003,
1106,-1.600e-002,
1107,1.600e-002,
1108,-1.600e-002,
1109,1.600e-002,
1110,1.600e-002,
1111,-1.600e-002,
1112,-8.000e-003,
1113,2.400e-002,
1114,-8.000e-003,
1115,2.400e-002,
1116,0.000e000,
1117,3.200e-002,
1118,0.000e000,
1119,3.200e-002,
1120,8.000e-003,
1121,3.200e-002,
1122,8.000e-003,
1123,3.200e-002,
1124,8.000e-003,
1125,3.200e-002,
1126,8.000e-003,
1127,3.200e-002,
1128,3.200e-002,
1129,0.000e000,
1130,2.400e-002,
1131,-8.000e-003,
1132,1.600e-002,
1133,-1.600e-002,
1134,8.000e-003,
1135,-2.400e-002,
1136,0.000e000,
1137,-4.000e-002,
1138,-8.000e-003,
1139,-4.000e-002,
1140,-1.600e-002,
1141,-4.800e-002,
1142,-2.400e-002,
1143,-4.800e-002,
1144,-4.800e-002,
1145,-2.400e-002,
1146,-2.400e-002,
1147,-5.599e-002,
1148,-4.800e-002,
1149,-1.600e-002,
1150,-4.000e-002,
1151,-8.000e-003,
1152,-4.000e-002,
1153,-8.000e-003,
1154,-3.200e-002,
1155,0.000e000,
1156,-2.400e-002,
1157,8.000e-003,
1158,-1.600e-002,
1159,1.600e-002,
1160,-8.000e-003,
1161,1.600e-002,
1162,-8.000e-003,
1163,2.400e-002,
1164,-8.000e-003,
1165,2.400e-002,
1166,-8.000e-003,
1167,2.400e-002,
1168,1.600e-002,
1169,-1.600e-002,
1170,-1.600e-002,
1171,1.600e-002,
1172,-1.600e-002,
1173,8.000e-003,
1174,8.000e-003,
1175,-2.400e-002,
1176,8.000e-003,
1177,-2.400e-002,
1178,8.000e-003,
1179,-2.400e-002,
1180,-1.600e-002,
1181,8.000e-003,
1182,-1.600e-002,
1183,8.000e-003,
1184,-1.600e-002,
1185,8.000e-003,
1186,-1.600e-002,
1187,1.600e-002,
1188,-1.600e-002,
1189,1.600e-002,
1190,-1.600e-002,
1191,1.600e-002,
1192,-1.600e-002,
1193,1.600e-002,
1194,-1.600e-002,
1195,1.600e-002,
1196,1.600e-002,
1197,-1.600e-002,
1198,-8.000e-003,
1199,1.600e-002,
1200,-8.000e-003,
1201,2.400e-002,
1202,0.000e000,
1203,3.200e-002,
1204,8.000e-003,
1205,4.000e-002,
1206,8.000e-003,
1207,4.000e-002,
1208,1.600e-002,
1209,4.000e-002,
